04_librelane_digital/soluzioni/lab01/sim/dump.vcd
$date
  Tue May 12 13:42:56 2026
$end
$version
  GHDL v0
$end
$timescale
  1 fs
$end
$scope module standard $end
$upscope $end
$scope module textio $end
$upscope $end
$scope module std_logic_1164 $end
$upscope $end
$scope module numeric_std $end
$upscope $end
$scope module env $end
$upscope $end
$scope module sar_controller_tb $end
$var reg 1 ! clk $end
$var reg 1 " rst_n $end
$var reg 1 # comp_out_p $end
$var reg 1 $ comp_out_n $end
$var reg 1 % phi_sample $end
$var reg 1 & phi_sample_n $end
$var reg 1 ' clk_comp $end
$var reg 8 ( dac_p[7:0] $end
$var reg 8 ) dac_n[7:0] $end
$var reg 8 * dout[7:0] $end
$var reg 1 + eoc $end
$var integer 32 , vin_code $end
$scope module dut $end
$var reg 1 - clk $end
$var reg 1 . rst_n $end
$var reg 1 / out_comp_p $end
$var reg 1 0 out_comp_n $end
$var reg 1 1 phi_sample $end
$var reg 1 2 phi_sample_n $end
$var reg 1 3 clk_comp $end
$var reg 8 4 dac_p[7:0] $end
$var reg 8 5 dac_n[7:0] $end
$var reg 8 6 dout[7:0] $end
$var reg 1 7 eoc $end
$comment state is not handled $end
$var reg 1 8 phi_sample_r $end
$var reg 8 9 dac_p_r[7:0] $end
$var reg 8 : dac_n_r[7:0] $end
$var reg 8 ; dout_r[7:0] $end
$upscope $end
$upscope $end
$enddefinitions $end
#0
0!
0"
0#
1$
0%
1&
1'
b11111111 (
b11111111 )
b00000000 *
0+
b0 ,
0-
0.
0/
10
01
12
13
b11111111 4
b11111111 5
b00000000 6
07
08
b11111111 9
b11111111 :
b00000000 ;
#1000000
#25000000
1!
0'
1-
03
#50000000
0!
1'
0-
13
#75000000
1!
0'
1-
03
#100000000
0!
1'
0-
13
#125000000
1!
0'
1-
03
#150000000
0!
1"
1'
0-
1.
13
#175000000
1!
0'
1-
03
#200000000
0!
1'
0-
13
#225000000
1!
1%
0&
0'
1-
11
02
03
18
#250000000
0!
0-
#275000000
1!
0%
1&
1-
01
12
08
#300000000
0!
1'
0-
13
#325000000
1!
0'
b01111111 (
1-
03
b01111111 4
b01111111 9
#326000000
#350000000
0!
1'
0-
13
#375000000
1!
0'
b00111111 (
1-
03
b00111111 4
b00111111 9
#376000000
#400000000
0!
1'
0-
13
#425000000
1!
0'
b00011111 (
1-
03
b00011111 4
b00011111 9
#426000000
#450000000
0!
1'
0-
13
#475000000
1!
0'
b00001111 (
1-
03
b00001111 4
b00001111 9
#476000000
#500000000
0!
1'
0-
13
#525000000
1!
0'
b00000111 (
1-
03
b00000111 4
b00000111 9
#526000000
#550000000
0!
1'
0-
13
#575000000
1!
0'
b00000011 (
1-
03
b00000011 4
b00000011 9
#576000000
#600000000
0!
1'
0-
13
#625000000
1!
0'
b00000001 (
1-
03
b00000001 4
b00000001 9
#626000000
#650000000
0!
1'
0-
13
#675000000
1!
0'
b00000000 (
1+
1-
03
b00000000 4
17
b00000000 9
#676000000
#700000000
0!
1'
0-
13
#725000000
1!
1%
0&
0'
b11111111 (
0+
1-
11
02
03
b11111111 4
07
18
b11111111 9
#726000000
#750000000
0!
b1 ,
0-
#751000000
#775000000
1!
0%
1&
1-
01
12
08
#800000000
0!
1'
0-
13
#825000000
1!
0'
b01111111 (
1-
03
b01111111 4
b01111111 9
#826000000
#850000000
0!
1'
0-
13
#875000000
1!
0'
b00111111 (
1-
03
b00111111 4
b00111111 9
#876000000
#900000000
0!
1'
0-
13
#925000000
1!
0'
b00011111 (
1-
03
b00011111 4
b00011111 9
#926000000
#950000000
0!
1'
0-
13
#975000000
1!
0'
b00001111 (
1-
03
b00001111 4
b00001111 9
#976000000
#1000000000
0!
1'
0-
13
#1025000000
1!
0'
b00000111 (
1-
03
b00000111 4
b00000111 9
#1026000000
#1050000000
0!
1'
0-
13
#1075000000
1!
0'
b00000011 (
1-
03
b00000011 4
b00000011 9
#1076000000
#1100000000
0!
1'
0-
13
#1125000000
1!
0'
b00000001 (
1-
03
b00000001 4
b00000001 9
#1126000000
1#
0$
1/
00
#1150000000
0!
1'
0-
13
#1175000000
1!
0'
b11111110 )
b00000001 *
1+
1-
03
b11111110 5
b00000001 6
17
b11111110 :
b00000001 ;
#1176000000
0#
1$
0/
10
#1200000000
0!
1'
0-
13
#1225000000
1!
1%
0&
0'
b11111111 (
b11111111 )
0+
1-
11
02
03
b11111111 4
b11111111 5
07
18
b11111111 9
b11111111 :
#1226000000
#1250000000
0!
b1000000 ,
0-
#1251000000
#1275000000
1!
0%
1&
1-
01
12
08
#1300000000
0!
1'
0-
13
#1325000000
1!
0'
b01111111 (
1-
03
b01111111 4
b01111111 9
#1326000000
1#
0$
1/
00
#1350000000
0!
1'
0-
13
#1375000000
1!
0'
b10111111 )
b01000001 *
1-
03
b10111111 5
b01000001 6
b10111111 :
b01000001 ;
#1376000000
0#
1$
0/
10
#1400000000
0!
1'
0-
13
#1425000000
1!
0'
b01011111 (
1-
03
b01011111 4
b01011111 9
#1426000000
#1450000000
0!
1'
0-
13
#1475000000
1!
0'
b01001111 (
1-
03
b01001111 4
b01001111 9
#1476000000
#1500000000
0!
1'
0-
13
#1525000000
1!
0'
b01000111 (
1-
03
b01000111 4
b01000111 9
#1526000000
#1550000000
0!
1'
0-
13
#1575000000
1!
0'
b01000011 (
1-
03
b01000011 4
b01000011 9
#1576000000
#1600000000
0!
1'
0-
13
#1625000000
1!
0'
b01000001 (
1-
03
b01000001 4
b01000001 9
#1626000000
#1650000000
0!
1'
0-
13
#1675000000
1!
0'
b01000000 (
b01000000 *
1+
1-
03
b01000000 4
b01000000 6
17
b01000000 9
b01000000 ;
#1676000000
#1700000000
0!
1'
0-
13
#1725000000
1!
1%
0&
0'
b11111111 (
b11111111 )
0+
1-
11
02
03
b11111111 4
b11111111 5
07
18
b11111111 9
b11111111 :
#1726000000
#1750000000
0!
b1111111 ,
0-
#1751000000
#1775000000
1!
0%
1&
1-
01
12
08
#1800000000
0!
1'
0-
13
#1825000000
1!
0'
b01111111 (
1-
03
b01111111 4
b01111111 9
#1826000000
1#
0$
1/
00
#1850000000
0!
1'
0-
13
#1875000000
1!
0'
b10111111 )
1-
03
b10111111 5
b10111111 :
#1876000000
#1900000000
0!
1'
0-
13
#1925000000
1!
0'
b10011111 )
b01100000 *
1-
03
b10011111 5
b01100000 6
b10011111 :
b01100000 ;
#1926000000
#1950000000
0!
1'
0-
13
#1975000000
1!
0'
b10001111 )
b01110000 *
1-
03
b10001111 5
b01110000 6
b10001111 :
b01110000 ;
#1976000000
#2000000000
0!
1'
0-
13
#2025000000
1!
0'
b10000111 )
b01111000 *
1-
03
b10000111 5
b01111000 6
b10000111 :
b01111000 ;
#2026000000
#2050000000
0!
1'
0-
13
#2075000000
1!
0'
b10000011 )
b01111100 *
1-
03
b10000011 5
b01111100 6
b10000011 :
b01111100 ;
#2076000000
#2100000000
0!
1'
0-
13
#2125000000
1!
0'
b10000001 )
b01111110 *
1-
03
b10000001 5
b01111110 6
b10000001 :
b01111110 ;
#2126000000
#2150000000
0!
1'
0-
13
#2175000000
1!
0'
b10000000 )
b01111111 *
1+
1-
03
b10000000 5
b01111111 6
17
b10000000 :
b01111111 ;
#2176000000
0#
1$
0/
10
#2200000000
0!
1'
0-
13
#2225000000
1!
1%
0&
0'
b11111111 (
b11111111 )
0+
1-
11
02
03
b11111111 4
b11111111 5
07
18
b11111111 9
b11111111 :
#2226000000
#2250000000
0!
b10000000 ,
0-
#2251000000
1#
0$
1/
00
#2275000000
1!
0%
1&
1-
01
12
08
#2300000000
0!
1'
0-
13
#2325000000
1!
0'
b01111111 )
b11111111 *
1-
03
b01111111 5
b11111111 6
b01111111 :
b11111111 ;
#2326000000
0#
1$
0/
10
#2350000000
0!
1'
0-
13
#2375000000
1!
0'
b10111111 (
b10111111 *
1-
03
b10111111 4
b10111111 6
b10111111 9
b10111111 ;
#2376000000
#2400000000
0!
1'
0-
13
#2425000000
1!
0'
b10011111 (
b10011111 *
1-
03
b10011111 4
b10011111 6
b10011111 9
b10011111 ;
#2426000000
#2450000000
0!
1'
0-
13
#2475000000
1!
0'
b10001111 (
b10001111 *
1-
03
b10001111 4
b10001111 6
b10001111 9
b10001111 ;
#2476000000
#2500000000
0!
1'
0-
13
#2525000000
1!
0'
b10000111 (
b10000111 *
1-
03
b10000111 4
b10000111 6
b10000111 9
b10000111 ;
#2526000000
#2550000000
0!
1'
0-
13
#2575000000
1!
0'
b10000011 (
b10000011 *
1-
03
b10000011 4
b10000011 6
b10000011 9
b10000011 ;
#2576000000
#2600000000
0!
1'
0-
13
#2625000000
1!
0'
b10000001 (
b10000001 *
1-
03
b10000001 4
b10000001 6
b10000001 9
b10000001 ;
#2626000000
#2650000000
0!
1'
0-
13
#2675000000
1!
0'
b10000000 (
b10000000 *
1+
1-
03
b10000000 4
b10000000 6
17
b10000000 9
b10000000 ;
#2676000000
#2700000000
0!
1'
0-
13
#2725000000
1!
1%
0&
0'
b11111111 (
b11111111 )
0+
1-
11
02
03
b11111111 4
b11111111 5
07
18
b11111111 9
b11111111 :
#2726000000
1#
0$
1/
00
#2750000000
0!
b11000000 ,
0-
#2751000000
#2775000000
1!
0%
1&
1-
01
12
08
#2800000000
0!
1'
0-
13
#2825000000
1!
0'
b01111111 )
1-
03
b01111111 5
b01111111 :
#2826000000
#2850000000
0!
1'
0-
13
#2875000000
1!
0'
b00111111 )
b11000000 *
1-
03
b00111111 5
b11000000 6
b00111111 :
b11000000 ;
#2876000000
0#
1$
0/
10
#2900000000
0!
1'
0-
13
#2925000000
1!
0'
b11011111 (
1-
03
b11011111 4
b11011111 9
#2926000000
#2950000000
0!
1'
0-
13
#2975000000
1!
0'
b11001111 (
1-
03
b11001111 4
b11001111 9
#2976000000
#3000000000
0!
1'
0-
13
#3025000000
1!
0'
b11000111 (
1-
03
b11000111 4
b11000111 9
#3026000000
#3050000000
0!
1'
0-
13
#3075000000
1!
0'
b11000011 (
1-
03
b11000011 4
b11000011 9
#3076000000
#3100000000
0!
1'
0-
13
#3125000000
1!
0'
b11000001 (
1-
03
b11000001 4
b11000001 9
#3126000000
#3150000000
0!
1'
0-
13
#3175000000
1!
0'
b11000000 (
1+
1-
03
b11000000 4
17
b11000000 9
#3176000000
#3200000000
0!
1'
0-
13
#3225000000
1!
1%
0&
0'
b11111111 (
b11111111 )
0+
1-
11
02
03
b11111111 4
b11111111 5
07
18
b11111111 9
b11111111 :
#3226000000
1#
0$
1/
00
#3250000000
0!
b11001000 ,
0-
#3251000000
#3275000000
1!
0%
1&
1-
01
12
08
#3300000000
0!
1'
0-
13
#3325000000
1!
0'
b01111111 )
1-
03
b01111111 5
b01111111 :
#3326000000
#3350000000
0!
1'
0-
13
#3375000000
1!
0'
b00111111 )
1-
03
b00111111 5
b00111111 :
#3376000000
0#
1$
0/
10
#3400000000
0!
1'
0-
13
#3425000000
1!
0'
b11011111 (
1-
03
b11011111 4
b11011111 9
#3426000000
#3450000000
0!
1'
0-
13
#3475000000
1!
0'
b11001111 (
1-
03
b11001111 4
b11001111 9
#3476000000
1#
0$
1/
00
#3500000000
0!
1'
0-
13
#3525000000
1!
0'
b00110111 )
b11001000 *
1-
03
b00110111 5
b11001000 6
b00110111 :
b11001000 ;
#3526000000
0#
1$
0/
10
#3550000000
0!
1'
0-
13
#3575000000
1!
0'
b11001011 (
1-
03
b11001011 4
b11001011 9
#3576000000
#3600000000
0!
1'
0-
13
#3625000000
1!
0'
b11001001 (
1-
03
b11001001 4
b11001001 9
#3626000000
#3650000000
0!
1'
0-
13
#3675000000
1!
0'
b11001000 (
1+
1-
03
b11001000 4
17
b11001000 9
#3676000000
#3700000000
0!
1'
0-
13
#3725000000
1!
1%
0&
0'
b11111111 (
b11111111 )
0+
1-
11
02
03
b11111111 4
b11111111 5
07
18
b11111111 9
b11111111 :
#3726000000
1#
0$
1/
00
#3750000000
0!
b11111111 ,
0-
#3751000000
#3775000000
1!
0%
1&
1-
01
12
08
#3800000000
0!
1'
0-
13
#3825000000
1!
0'
b01111111 )
1-
03
b01111111 5
b01111111 :
#3826000000
#3850000000
0!
1'
0-
13
#3875000000
1!
0'
b00111111 )
1-
03
b00111111 5
b00111111 :
#3876000000
#3900000000
0!
1'
0-
13
#3925000000
1!
0'
b00011111 )
b11101000 *
1-
03
b00011111 5
b11101000 6
b00011111 :
b11101000 ;
#3926000000
#3950000000
0!
1'
0-
13
#3975000000
1!
0'
b00001111 )
b11111000 *
1-
03
b00001111 5
b11111000 6
b00001111 :
b11111000 ;
#3976000000
#4000000000
0!
1'
0-
13
#4025000000
1!
0'
b00000111 )
1-
03
b00000111 5
b00000111 :
#4026000000
#4050000000
0!
1'
0-
13
#4075000000
1!
0'
b00000011 )
b11111100 *
1-
03
b00000011 5
b11111100 6
b00000011 :
b11111100 ;
#4076000000
#4100000000
0!
1'
0-
13
#4125000000
1!
0'
b00000001 )
b11111110 *
1-
03
b00000001 5
b11111110 6
b00000001 :
b11111110 ;
#4126000000
#4150000000
0!
1'
0-
13
#4175000000
1!
0'
b00000000 )
b11111111 *
1+
1-
03
b00000000 5
b11111111 6
17
b00000000 :
b11111111 ;
#4176000000
0#
1$
0/
10
#4200000000
0!
1'
0-
13
#4225000000
1!
1%
0&
0'
b11111111 )
0+
1-
11
02
03
b11111111 5
07
18
b11111111 :
#4226000000
1#
0$
1/
00
#4250000000
0!
0-
#4275000000
1!
0%
1&
1-
01
12
08
#4300000000
0!
1'
0-
13
#4325000000
1!
0'
b01111111 )
1-
03
b01111111 5
b01111111 :
